{
    "countries": {
        "title": "countries",
        "singular": "country",
        "api": "/api/films-taxonomy/countries/",
        "form": [
            {
                "name": "name",
                "label": "name",
                "type": "text"
            }
        ]
    },
    "genres": {
        "title": "genres",
        "singular": "genre",
        "api": "/api/films-taxonomy/genres/",
        "form": [
            {
                "name": "name",
                "label": "name",
                "type": "text"
            }
        ]
    },
    "films": {
        "title": "films",
        "singular": "film",
        "api": "/api/films/",
        "form": [
            {
                "name": "name",
                "label": "name",
                "type": "text"
            },
            {
                "name": "description",
                "label": "description",
                "type": "textarea"
            },
            {
                "name": "release_date",
                "label": "release_date",
                "type": "date"
            },
            {
                "name": "rating",
                "label": "rating",
                "type": "rating"
            },
            {
                "name": "ticket_price",
                "label": "ticket_price",
                "type": "text"
            },
            {
                "name": "photo",
                "label": "photo",
                "type": "image"
            },
            {
                "name": "country_id",
                "label": "country_id",
                "type": "autocomplete",
                "source": "/api/films-taxonomy/countries/",
                "attr": "country"
            },
            {
                "name": "genres",
                "label": "genres",
                "type": "tags",
                "source": "/api/films-taxonomy/genres/",
                "placeholder": "add_genre"
            }
        ]
    }
}
